[
    {
        "id": 1,
        "quota": 100,
        "discountType": "percentage",
        "discountAmount": 10,
        "quotaInDay": 10,
        "rules": {
            "minRoomUse": 2,
            "minNights": 3,
            "checkinDay": "mon",
            "bookingDay": "sun",
            "bookingHours": [
                {
                    "start": "12:00",
                    "end": "13:00"
                },
                {
                    "start": "14:00",
                    "end": "16:00"
                }
            ]
        }
    },
    {
        "id": 2,
        "quota": 150,
        "discountType": "currency",
        "discountAmount": 50000,
        "quotaInDay": 10,
        "rules": {
            "minRoomUse": 4,
            "minNights": 1,
            "checkinDay": "mon",
            "bookingDay": "fri",
            "bookingHours": [
                {
                    "start": "12:00",
                    "end": "13:00"
                },
                {
                    "start": "12:00",
                    "end": "13:00"
                }
            ]
        }
    }
]